{
  "version": "1.0",
  "shipmentType": "LTL",
  "shipmentMode": "Dry Van",
  "paymentType": "Outbound Prepaid",
  "client": { "id": "001o0000016YZdy" },
  "origin": {
    "companyName": "SlyFox Creative",
    "streetAddress": "601 Sayre Ct",
    "city": "Greenwood",
    "stateProvince": "IN",
    "postalCode": "46143",
    "country": "US"
  },
  "destination": {
    "companyName": "SlyFox Creative",
    "streetAddress": "601 Sayre Ct",
    "city": "Greenwood",
    "stateProvince": "IN",
    "postalCode": "46143",
    "country": "US"
  },
  "billTo": {
    "companyName": "SlyFox Creative",
    "streetAddress": "601 Sayre Ct",
    "city": "Greenwood",
    "stateProvince": "IN",
    "postalCode": "46143",
    "country": "US"
  },
  "weightUnit": "LB",
  "lengthUnit": "IN",
  "lineItems": [
    {
      "sku": "TTN*HD2P-9KCL",
      "quantity": 1,
      "weight": 1466,
      "freightClass": "77.5",
      "nmfc": "111220-03"
    }
  ],
  "handlingUnits": [
    {
      "quantity": 1,
      "huType": "Skid(s)",
      "length": 154,
      "width": 20,
      "height": 39,
      "weight": 1466
    }
  ],
  "accessorials": [
    { "code": "LGATE", "accessorialType": "Delivery" },
    { "code": "RESIDNTL", "accessorialType": "Delivery" },
    { "code": "SINGLE", "accessorialType": "Other" }
  ]
}
